<svg xmlns="http://www.w3.org/2000/svg" xmlns:xlink="http://www.w3.org/1999/xlink" preserveAspectRatio="xMidYMid" width="29" height="29" viewBox="0 0 29 29">
  <defs>
    <style>
      .cls-1 {
        fill: #000;
        fill-rule: evenodd;
      }
    </style>
  </defs>
  <path d="M28.506,18.252 C26.433,25.987 18.482,30.578 10.747,28.505 C3.012,26.432 -1.579,18.482 0.494,10.746 C2.567,3.011 10.518,-1.579 18.253,0.493 C25.988,2.566 30.579,10.517 28.506,18.252 ZM17.878,1.894 C10.916,0.028 3.760,4.160 1.894,11.122 C0.029,18.083 4.161,25.239 11.122,27.105 C18.084,28.970 25.240,24.839 27.105,17.877 C28.971,10.915 24.839,3.759 17.878,1.894 ZM19.114,19.114 C18.831,19.397 18.372,19.397 18.089,19.114 L14.500,15.525 L10.911,19.114 C10.628,19.397 10.169,19.397 9.886,19.114 C9.603,18.831 9.603,18.372 9.886,18.088 L13.475,14.500 L9.886,10.911 C9.603,10.628 9.603,10.169 9.886,9.886 C10.169,9.603 10.628,9.603 10.911,9.886 L14.500,13.475 L18.089,9.886 C18.372,9.603 18.831,9.603 19.114,9.886 C19.397,10.169 19.397,10.628 19.114,10.911 L15.525,14.500 L19.114,18.088 C19.397,18.372 19.397,18.831 19.114,19.114 Z" class="cls-1"/>
</svg>
